{
  "project_info": {
    "project_number": "228603291376",
    "project_id": "drive-api-e9e22",
    "storage_bucket": "drive-api-e9e22.appspot.com"
  },
  "client": [
    {
      "client_info": {
        "mobilesdk_app_id": "1:228603291376:android:c32a25d3c6dbc1619fc435",
        "android_client_info": {
          "package_name": "com.example.wua_page_project"
        }
      },
      "oauth_client": [
        {
          "client_id": "228603291376-5m6aktlrpqlli90k4ln0b4h0jnf1udut.apps.googleusercontent.com",
          "client_type": 1,
          "android_info": {
            "package_name": "com.example.wua_page_project",
            "certificate_hash": "eb3e7e36db17d688986a13f96aa4334534d57a23"
          }
        },
        {
          "client_id": "228603291376-64pajo9jh93lfion9jt4cqf7chprjbro.apps.googleusercontent.com",
          "client_type": 3
        }
      ],
      "api_key": [
        {
          "current_key": "AIzaSyDAch9NM-mVbOLCRb2gv4BeNvkx7I3jSXk"
        }
      ],
      "services": {
        "appinvite_service": {
          "other_platform_oauth_client": [
            {
              "client_id": "228603291376-64pajo9jh93lfion9jt4cqf7chprjbro.apps.googleusercontent.com",
              "client_type": 3
            }
          ]
        }
      }
    }
  ],
  "configuration_version": "1"
}